tezt/_regressions/protocol.alpha.vote.ballots.out

./tezos-codec encode alpha.vote.ballots from '{ "yay": 2147483647, "nay": 0, "pass": 455 }'
7fffffff00000000000001c7

./tezos-codec decode alpha.vote.ballots from 7fffffff00000000000001c7
{ "yay": 2147483647, "nay": 0, "pass": 455 }
